<?xml version="1.0" encoding="UTF-8"?>
<svg width="25px" height="22px" viewBox="0 0 25 22" version="1.1" xmlns="http://www.w3.org/2000/svg" xmlns:xlink="http://www.w3.org/1999/xlink">
    <!-- Generator: Sketch 48.2 (47327) - http://www.bohemiancoding.com/sketch -->
    <title>baseline-photo_album-24px</title>
    <desc>Created with Sketch.</desc>
    <defs></defs>
    <g id="User-List" stroke="none" stroke-width="1" fill="none" fill-rule="evenodd" transform="translate(-20.000000, -443.000000)">
        <g id="Aside" transform="translate(0.000000, 77.000000)" fill="#FFFFFF" fill-rule="nonzero" stroke="#979797">
            <g id="Aside-Menu" transform="translate(20.000000, 262.000000)">
                <g id="Group-2" transform="translate(1.000000, 105.000000)">
                    <g id="Group-5">
                        <g id="baseline-photo_album-24px">
                            <path d="M20.125,0 L2.875,0 C1.29375,0 0,0.9 0,2 L0,18 C0,19.1 1.29375,20 2.875,20 L20.125,20 C21.70625,20 23,19.1 23,18 L23,2 C23,0.9 21.70625,0 20.125,0 Z M2.875,2 L10.0625,2 L10.0625,10 L6.46875,8.5 L2.875,10 L2.875,2 Z M2.875,17 L7.1875,13.14 L10.26375,15.72 L14.57625,11.86 L20.125,17 L2.875,17 Z" id="Shape"></path>
                        </g>
                    </g>
                </g>
            </g>
        </g>
    </g>
</svg>