<?xml version="1.0" encoding="UTF-8"?>
<svg width="22px" height="23px" viewBox="0 0 22 23" version="1.1" xmlns="http://www.w3.org/2000/svg" xmlns:xlink="http://www.w3.org/1999/xlink">
    <!-- Generator: Sketch 48.2 (47327) - http://www.bohemiancoding.com/sketch -->
    <title>noun_product_1903965</title>
    <desc>Created with Sketch.</desc>
    <defs></defs>
    <g id="User-List" stroke="none" stroke-width="1" fill="none" fill-rule="evenodd" transform="translate(-21.000000, -495.000000)">
        <g id="Aside" transform="translate(0.000000, 77.000000)" fill="#9B9B9B" fill-rule="nonzero">
            <g id="Aside-Menu" transform="translate(20.000000, 262.000000)">
                <g id="Group-7" transform="translate(1.000000, 156.000000)">
                    <g id="noun_product_1903965">
                        <g id="Group">
                            <path d="M19.7083333,23 L2.29166667,23 C1.02664231,22.9984158 0.00151530332,21.9266921 -5.55777646e-16,20.6041667 L-5.55777646e-16,2.39583333 C0.00151530332,1.07330787 1.02664231,0.00158418074 2.29166667,-5.55777646e-16 L19.7083333,-5.55777646e-16 C20.9733577,0.00158418074 21.9984847,1.07330787 22,2.39583333 L22,20.6041667 C21.9984847,21.9266921 20.9733577,22.9984158 19.7083333,23 Z M2.29166667,0.958333333 C1.53227514,0.958333333 0.916666667,1.60192401 0.916666667,2.39583333 L0.916666667,20.6041667 C0.916666667,21.398076 1.53227514,22.0416667 2.29166667,22.0416667 L19.7083333,22.0416667 C20.4677249,22.0416667 21.0833333,21.398076 21.0833333,20.6041667 L21.0833333,2.39583333 C21.0833333,1.60192401 20.4677249,0.958333333 19.7083333,0.958333333 L2.29166667,0.958333333 Z" id="Shape"></path>
                            <path d="M13.75,9.10416667 L8.25,9.10416667 C7.49060847,9.10416667 6.875,8.46057599 6.875,7.66666667 L6.875,0.479166667 C6.875,0.214530224 7.08020282,4.86129259e-17 7.33333333,0 C7.58646384,-4.86129259e-17 7.79166667,0.214530224 7.79166667,0.479166667 L7.79166667,7.66666667 C7.79166667,7.93130311 7.99686949,8.14583333 8.25,8.14583333 L13.75,8.14583333 C14.0031305,8.14583333 14.2083333,7.93130311 14.2083333,7.66666667 L14.2083333,0.479166667 C14.2083333,0.214530224 14.4135362,4.86129259e-17 14.6666667,0 C14.9197972,-4.86129259e-17 15.125,0.214530224 15.125,0.479166667 L15.125,7.66666667 C15.125,8.46057599 14.5093915,9.10416667 13.75,9.10416667 Z" id="Shape"></path>
                            <path d="M12.8333333,6.70833333 L9.16666667,6.70833333 C8.91353616,6.70833333 8.70833333,6.49380311 8.70833333,6.22916667 C8.70833333,5.96453022 8.91353616,5.75 9.16666667,5.75 L12.8333333,5.75 C13.0864638,5.75 13.2916667,5.96453022 13.2916667,6.22916667 C13.2916667,6.49380311 13.0864638,6.70833333 12.8333333,6.70833333 Z" id="Shape"></path>
                            <path d="M5.5,20.125 L3.66666667,20.125 C3.16040565,20.125 2.75,19.6959396 2.75,19.1666667 L2.75,17.25 C2.75,16.7207271 3.16040565,16.2916667 3.66666667,16.2916667 L5.5,16.2916667 C6.00626102,16.2916667 6.41666667,16.7207271 6.41666667,17.25 L6.41666667,19.1666667 C6.41666667,19.6959396 6.00626102,20.125 5.5,20.125 Z M3.66666667,17.25 L3.66666667,19.1666667 L5.5,19.1666667 L5.5,17.25 L3.66666667,17.25 Z" id="Shape"></path>
                            <path d="M11.4583333,17.7291667 L8.25,17.7291667 C7.99686949,17.7291667 7.79166667,17.5146364 7.79166667,17.25 C7.79166667,16.9853636 7.99686949,16.7708333 8.25,16.7708333 L11.4583333,16.7708333 C11.7114638,16.7708333 11.9166667,16.9853636 11.9166667,17.25 C11.9166667,17.5146364 11.7114638,17.7291667 11.4583333,17.7291667 Z" id="Shape"></path>
                            <path d="M9.625,19.6458333 L8.25,19.6458333 C7.99686949,19.6458333 7.79166667,19.4313031 7.79166667,19.1666667 C7.79166667,18.9020302 7.99686949,18.6875 8.25,18.6875 L9.625,18.6875 C9.87813051,18.6875 10.0833333,18.9020302 10.0833333,19.1666667 C10.0833333,19.4313031 9.87813051,19.6458333 9.625,19.6458333 Z" id="Shape"></path>
                            <path d="M12.8333333,19.6458333 L11.4583333,19.6458333 C11.2052028,19.6458333 11,19.4313031 11,19.1666667 C11,18.9020302 11.2052028,18.6875 11.4583333,18.6875 L12.8333333,18.6875 C13.0864638,18.6875 13.2916667,18.9020302 13.2916667,19.1666667 C13.2916667,19.4313031 13.0864638,19.6458333 12.8333333,19.6458333 Z" id="Shape"></path>
                        </g>
                    </g>
                </g>
            </g>
        </g>
    </g>
</svg>